{
  "consumer_key": "fRmLXKz9WSBp6wZXbO2thtWs9",
  "consumer_secret": "D8I9oWBbZ5vzW4oWKSuneFSdPVZoJ6S4epbrjZn3bJzfkGRJS9",
  "access_token": "1094677683567554562-8o5mbJ2efNFweoxh5ILTX3K0yWSCvx",
  "access_token_secret": "dxEJ3Zx2oQdkmy4gbY44VUt51EvHCQsf4kDoquCDPazAt"
}

