(export (version D)
  (design
    (source C:/Users/Germain/Projets/Fablab/Rob-AIR/docs/elec/cartehaute/cartehaute.sch)
    (date "27/09/2017 15:08:14")
    (tool "Eeschema 4.0.4-stable")
    (sheet (number 1) (name /) (tstamps /)
      (title_block
        (title)
        (company)
        (rev)
        (date)
        (source cartehaute.sch)
        (comment (number 1) (value ""))
        (comment (number 2) (value ""))
        (comment (number 3) (value ""))
        (comment (number 4) (value "")))))
  (components
    (comp (ref P3)
      (value LED)
      (footprint Pin_Headers:Pin_Header_Straight_1x02_Pitch2.54mm)
      (libsource (lib conn) (part CONN_01X02))
      (sheetpath (names /) (tstamps /))
      (tstamp 581A1274))
    (comp (ref P1)
      (value Servo)
      (footprint Pin_Headers:Pin_Header_Straight_1x03_Pitch2.54mm)
      (libsource (lib conn) (part CONN_01X03))
      (sheetpath (names /) (tstamps /))
      (tstamp 581A12AF))
    (comp (ref P2)
      (value Yeux)
      (footprint Pin_Headers:Pin_Header_Straight_1x03_Pitch2.54mm)
      (libsource (lib conn) (part CONN_01X03))
      (sheetpath (names /) (tstamps /))
      (tstamp 581A12FA))
    (comp (ref P4)
      (value HUB)
      (footprint Pin_Headers:Pin_Header_Straight_1x02_Pitch2.54mm)
      (libsource (lib conn) (part CONN_01X02))
      (sheetpath (names /) (tstamps /))
      (tstamp 581A1378))
    (comp (ref P6)
      (value 5V)
      (footprint robair:Bornier5mm)
      (libsource (lib conn) (part CONN_01X02))
      (sheetpath (names /) (tstamps /))
      (tstamp 581A13A0))
    (comp (ref P11)
      (value AN2)
      (footprint Pin_Headers:Pin_Header_Straight_1x02_Pitch2.54mm)
      (libsource (lib conn) (part CONN_01X02))
      (sheetpath (names /) (tstamps /))
      (tstamp 581AF215))
    (comp (ref P9)
      (value AN1)
      (footprint Pin_Headers:Pin_Header_Straight_1x02_Pitch2.54mm)
      (libsource (lib conn) (part CONN_01X02))
      (sheetpath (names /) (tstamps /))
      (tstamp 581AF69C))
    (comp (ref P8)
      (value ARU)
      (footprint Pin_Headers:Pin_Header_Straight_1x02_Pitch2.54mm)
      (libsource (lib conn) (part CONN_01X02))
      (sheetpath (names /) (tstamps /))
      (tstamp 581AF6D0))
    (comp (ref P10)
      (value Analog)
      (footprint Pin_Headers:Pin_Header_Straight_1x04_Pitch2.54mm)
      (libsource (lib conn) (part CONN_01X04))
      (sheetpath (names /) (tstamps /))
      (tstamp 581AF810))
    (comp (ref P5)
      (value Servo2)
      (footprint Pin_Headers:Pin_Header_Straight_1x03_Pitch2.54mm)
      (libsource (lib conn) (part CONN_01X03))
      (sheetpath (names /) (tstamps /))
      (tstamp 58CB0AEB))
    (comp (ref P7)
      (value data)
      (footprint Pin_Headers:Pin_Header_Straight_1x03_Pitch2.54mm)
      (libsource (lib conn) (part CONN_01X03))
      (sheetpath (names /) (tstamps /))
      (tstamp 58CB0F48))
    (comp (ref P14)
      (value 19/12V)
      (footprint robair:Bornier5mm)
      (libsource (lib conn) (part CONN_01X02))
      (sheetpath (names /) (tstamps /))
      (tstamp 59CBA5A8))
    (comp (ref P12)
      (value 12V)
      (footprint robair:Bornier5mm)
      (libsource (lib conn) (part CONN_01X02))
      (sheetpath (names /) (tstamps /))
      (tstamp 59CBA6DE))
    (comp (ref P13)
      (value 19V)
      (footprint robair:Bornier5mm)
      (libsource (lib conn) (part CONN_01X02))
      (sheetpath (names /) (tstamps /))
      (tstamp 59CBA743)))
  (libparts
    (libpart (lib conn) (part CONN_01X02)
      (description "Connector, single row, 01x02")
      (footprints
        (fp Pin_Header_Straight_1X02)
        (fp Pin_Header_Angled_1X02)
        (fp Socket_Strip_Straight_1X02)
        (fp Socket_Strip_Angled_1X02))
      (fields
        (field (name Reference) P)
        (field (name Value) CONN_01X02))
      (pins
        (pin (num 1) (name P1) (type passive))
        (pin (num 2) (name P2) (type passive))))
    (libpart (lib conn) (part CONN_01X03)
      (description "Connector, single row, 01x03")
      (footprints
        (fp Pin_Header_Straight_1X03)
        (fp Pin_Header_Angled_1X03)
        (fp Socket_Strip_Straight_1X03)
        (fp Socket_Strip_Angled_1X03))
      (fields
        (field (name Reference) P)
        (field (name Value) CONN_01X03))
      (pins
        (pin (num 1) (name P1) (type passive))
        (pin (num 2) (name P2) (type passive))
        (pin (num 3) (name P3) (type passive))))
    (libpart (lib conn) (part CONN_01X04)
      (description "Connector, single row, 01x04")
      (footprints
        (fp Pin_Header_Straight_1X04)
        (fp Pin_Header_Angled_1X04)
        (fp Socket_Strip_Straight_1X04)
        (fp Socket_Strip_Angled_1X04))
      (fields
        (field (name Reference) P)
        (field (name Value) CONN_01X04))
      (pins
        (pin (num 1) (name P1) (type passive))
        (pin (num 2) (name P2) (type passive))
        (pin (num 3) (name P3) (type passive))
        (pin (num 4) (name P4) (type passive)))))
  (libraries
    (library (logical conn)
      (uri "C:\\Program Files\\KiCad\\share\\kicad\\library\\conn.lib")))
  (nets
    (net (code 1) (name "Net-(P10-Pad4)")
      (node (ref P10) (pin 4))
      (node (ref P11) (pin 2)))
    (net (code 2) (name "Net-(P10-Pad3)")
      (node (ref P10) (pin 3))
      (node (ref P9) (pin 2)))
    (net (code 3) (name "Net-(P10-Pad2)")
      (node (ref P10) (pin 2))
      (node (ref P8) (pin 2)))
    (net (code 4) (name "Net-(P10-Pad1)")
      (node (ref P10) (pin 1))
      (node (ref P8) (pin 1))
      (node (ref P9) (pin 1))
      (node (ref P11) (pin 1)))
    (net (code 5) (name "Net-(P1-Pad3)")
      (node (ref P1) (pin 3))
      (node (ref P7) (pin 2)))
    (net (code 6) (name "Net-(P2-Pad3)")
      (node (ref P7) (pin 3))
      (node (ref P2) (pin 3)))
    (net (code 7) (name "Net-(P12-Pad2)")
      (node (ref P14) (pin 2))
      (node (ref P12) (pin 2)))
    (net (code 8) (name "Net-(P13-Pad2)")
      (node (ref P14) (pin 1))
      (node (ref P13) (pin 2)))
    (net (code 9) (name "Net-(P5-Pad3)")
      (node (ref P5) (pin 3))
      (node (ref P7) (pin 1)))
    (net (code 10) (name /GND)
      (node (ref P2) (pin 1))
      (node (ref P3) (pin 1))
      (node (ref P1) (pin 1))
      (node (ref P12) (pin 1))
      (node (ref P13) (pin 1))
      (node (ref P4) (pin 1))
      (node (ref P6) (pin 1))
      (node (ref P5) (pin 1)))
    (net (code 11) (name /5V)
      (node (ref P5) (pin 2))
      (node (ref P3) (pin 2))
      (node (ref P1) (pin 2))
      (node (ref P2) (pin 2))
      (node (ref P4) (pin 2))
      (node (ref P6) (pin 2)))))